{"name":"factTest","id":"SerenityInitialTest:factTest","testCaseName":"SerenityInitialTest","testSteps":[{"number":1,"description":"Asesor executes a GET on the resource /users?page\u003d2","duration":2906,"startTime":"2019-10-21T15:29:10.635-05:00[America/Bogota]","result":"SUCCESS","precondition":false,"children":[{"number":2,"description":"GET https://reqres.in/api/users?page\u003d2","duration":1,"startTime":"2019-10-21T15:29:13.536-05:00[America/Bogota]","result":"SUCCESS","restQuery":{"method":"GET","path":"https://reqres.in/api/users?page\u003d2","content":"","contentType":"null","requestHeaders":"Accept\u003d*/*","requestCookies":"","responseHeaders":"Age: 3711\nVia: 1.1 vegur, 1.1 10.138.0.57 (McAfee Web Gateway 7.8.2.3.0.26967)\nDate: Mon, 21 Oct 2019 20:29:08 GMT\nEtag: W/\"414-k36Lu9tCb0XMJeh2/UG19C4xbw4\"\nCF-RAY: 5295fb5d9b7ac873-MIA\nServer: cloudflare\nExpires: Tue, 22 Oct 2019 00:29:08 GMT\nX-Cache: MISS from 10.138.0.57\nExpect-CT: max-age\u003d604800, report-uri\u003d\"https://report-uri.cloudflare.com/cdn-cgi/beacon/expect-ct\"\nConnection: Keep-Alive\nSet-Cookie: __cfduid\u003dd927ba340909b81271484e3f06f0533901571689748; expires\u003dTue, 20-Oct-20 20:29:08 GMT; path\u003d/; domain\u003d.reqres.in; HttpOnly; Secure\nContent-Type: application/json; charset\u003dutf-8\nX-Powered-By: Express\nCache-Control: public, max-age\u003d14400\nCF-Cache-Status: HIT\nTransfer-Encoding: chunked\nAccess-Control-Allow-Origin: *","responseCookies":"__cfduid\u003dd927ba340909b81271484e3f06f0533901571689748;Path\u003d/;Domain\u003d.reqres.in;Secure;HttpOnly;Expires\u003d20/10/20 20:29","responseBody":"{\n    \"page\": 2,\n    \"per_page\": 6,\n    \"total\": 12,\n    \"total_pages\": 2,\n    \"data\": [\n        {\n            \"id\": 7,\n            \"email\": \"michael.lawson@reqres.in\",\n            \"first_name\": \"Michael\",\n            \"last_name\": \"Lawson\",\n            \"avatar\": \"https://s3.amazonaws.com/uifaces/faces/twitter/follettkyle/128.jpg\"\n        },\n        {\n            \"id\": 8,\n            \"email\": \"lindsay.ferguson@reqres.in\",\n            \"first_name\": \"Lindsay\",\n            \"last_name\": \"Ferguson\",\n            \"avatar\": \"https://s3.amazonaws.com/uifaces/faces/twitter/araa3185/128.jpg\"\n        },\n        {\n            \"id\": 9,\n            \"email\": \"tobias.funke@reqres.in\",\n            \"first_name\": \"Tobias\",\n            \"last_name\": \"Funke\",\n            \"avatar\": \"https://s3.amazonaws.com/uifaces/faces/twitter/vivekprvr/128.jpg\"\n        },\n        {\n            \"id\": 10,\n            \"email\": \"byron.fields@reqres.in\",\n            \"first_name\": \"Byron\",\n            \"last_name\": \"Fields\",\n            \"avatar\": \"https://s3.amazonaws.com/uifaces/faces/twitter/russoedu/128.jpg\"\n        },\n        {\n            \"id\": 11,\n            \"email\": \"george.edwards@reqres.in\",\n            \"first_name\": \"George\",\n            \"last_name\": \"Edwards\",\n            \"avatar\": \"https://s3.amazonaws.com/uifaces/faces/twitter/mrmoiree/128.jpg\"\n        },\n        {\n            \"id\": 12,\n            \"email\": \"rachel.howell@reqres.in\",\n            \"first_name\": \"Rachel\",\n            \"last_name\": \"Howell\",\n            \"avatar\": \"https://s3.amazonaws.com/uifaces/faces/twitter/hebertialmeida/128.jpg\"\n        }\n    ]\n}","statusCode":200},"precondition":false}]}],"userStory":{"id":"SerenityInitialTest","storyName":"Serenity initial test","storyClassName":"SerenityInitialTest","path":"","type":"story"},"featureTag":{"name":"Serenity initial test","type":"story"},"title":"Fact test","tags":[{"name":"Serenity initial test","type":"story"}],"startTime":"2019-10-21T15:29:09.892-05:00[America/Bogota]","duration":4043,"projectKey":"","manual":false,"testSource":"JUnit","actors":[{"name":"Asesor","can":["call an API at https://reqres.in/api"],"has":["Los usuarios son[{last_name\u003dLawson, id\u003d7, avatar\u003dhttps://s3.amazonaws.com/uifaces/faces/twitter/follettkyle/128.jpg, first_name\u003dMichael, email\u003dmichael.lawson@reqres.in}, {last_name\u003dFerguson, id\u003d8, avatar\u003dhttps://s3.amazonaws.com/uifaces/faces/twitter/araa3185/128.jpg, first_name\u003dLindsay, email\u003dlindsay.ferguson@reqres.in}, {last_name\u003dFunke, id\u003d9, avatar\u003dhttps://s3.amazonaws.com/uifaces/faces/twitter/vivekprvr/128.jpg, first_name\u003dTobias, email\u003dtobias.funke@reqres.in}, {last_name\u003dFields, id\u003d10, avatar\u003dhttps://s3.amazonaws.com/uifaces/faces/twitter/russoedu/128.jpg, first_name\u003dByron, email\u003dbyron.fields@reqres.in}, {last_name\u003dEdwards, id\u003d11, avatar\u003dhttps://s3.amazonaws.com/uifaces/faces/twitter/mrmoiree/128.jpg, first_name\u003dGeorge, email\u003dgeorge.edwards@reqres.in}, {last_name\u003dHowell, id\u003d12, avatar\u003dhttps://s3.amazonaws.com/uifaces/faces/twitter/hebertialmeida/128.jpg, first_name\u003dRachel, email\u003drachel.howell@reqres.in}]"]}],"result":"SUCCESS"}